{
  "classify": "十一选五",
  "data": [
    {
      "playName": "shuangmianpan",
      "data": [
        {
          "name": "总和",
          "oddPlayItems": []
        },
        {
          "name": "第一球",
          "oddPlayItems": []
        },
        {
          "name": "第二球",
          "oddPlayItems": []
        },
        {
          "name": "第三球",
          "oddPlayItems": []
        },
        {
          "name": "第四球",
          "oddPlayItems": []
        },
        {
          "name": "第五球",
          "oddPlayItems": []
        }
      ]
    },
    {
      "playName": "15qiu",
      "data": [
        {
          "name": "第一球",
          "oddPlayItems": []
        },
        {
          "name": "第二球",
          "oddPlayItems": []
        },
        {
          "name": "第三球",
          "oddPlayItems": []
        },
        {
          "name": "第四球",
          "oddPlayItems": []
        },
        {
          "name": "第五球",
          "oddPlayItems": []
        }
      ]
    },
    {
      "playName": "yizhongyi",
      "data": [
        {
          "name": "一中一",
          "oddPlayItems": []
        }
      ]
    },
    {
      "playName": "erzhonger",
      "data": [
        {
          "name": "二中二",
          "oddPlayItems": []
        }
      ]
    },
    {
      "playName": "sanzhongsan",
      "data": [
        {
          "name": "三中三",
          "oddPlayItems": []
        }
      ]
    },
    {
      "playName": "sizhongsi",
      "data": [
        {
          "name": "四中四",
          "oddPlayItems": []
        }
      ]
    },
    {
      "playName": "wuzhongwu",
      "data": [
        {
          "name": "五中五",
          "oddPlayItems": []
        }
      ]
    },
    {
      "playName": "liuzhongwu",
      "data": [
        {
          "name": "六中五",
          "oddPlayItems": []
        }
      ]
    },
    {
      "playName": "qizhongwu",
      "data": [
        {
          "name": "七中五",
          "oddPlayItems": []
        }
      ]
    },
    {
      "playName": "bazhongwu",
      "data": [
        {
          "name": "八中五",
          "oddPlayItems": []
        }
      ]
    },
    {
      "playName": "zuxuanqianer",
      "data": [
        {
          "name": "前二",
          "oddPlayItems": []
        }
      ]
    },
    {
      "playName": "zuxuanhouer",
      "data": [
        {
          "name": "后二",
          "oddPlayItems": []
        }
      ]
    },
    {
      "playName": "zuxuanqiansan",
      "data": [
        {
          "name": "前三",
          "oddPlayItems": []
        }
      ]
    },
    {
      "playName": "zuxuanzhongsan",
      "data": [
        {
          "name": "中三",
          "oddPlayItems": []
        }
      ]
    },
    {
      "playName": "zuxuanhousan",
      "data": [
        {
          "name": "后三",
          "oddPlayItems": []
        }
      ]
    },
    {
      "playName": "zhixuanqianer",
      "data": [
        {
          "name": "第一球",
          "oddPlayItems": []
        },
        {
          "name": "第二球",
          "oddPlayItems": []
        }
      ]
    },
    {
      "playName": "zhixuanhouer",
      "data": [
        {
          "name": "第四球",
          "oddPlayItems": []
        },
        {
          "name": "第五球",
          "oddPlayItems": []
        }
      ]
    },
    {
      "playName": "zhixuanqiansan",
      "data": [
        {
          "name": "第一球",
          "oddPlayItems": []
        },
        {
          "name": "第二球",
          "oddPlayItems": []
        },
        {
          "name": "第三球",
          "oddPlayItems": []
        }
      ]
    },
    {
      "playName": "zhixuanzhongsan",
      "data": [
        {
          "name": "第二球",
          "oddPlayItems": []
        },
        {
          "name": "第三球",
          "oddPlayItems": []
        },
        {
          "name": "第四球",
          "oddPlayItems": []
        }
      ]
    },
    {
      "playName": "zhixuanhousan",
      "data": [
        {
          "name": "第三球",
          "oddPlayItems": []
        },
        {
          "name": "第四球",
          "oddPlayItems": []
        },
        {
          "name": "第五球",
          "oddPlayItems": []
        }
      ]
    }
  ]
}