{
  "classify": "六合彩",
  "data": [
    {
      "playName": "tm_a",
      "data": [
        {
          "name": "选号",
          "oddPlayItems": []
        },
        {
          "name": "双面",
          "oddPlayItems": []
        }
      ]
    },
    {
      "playName": "tm_b",
      "data": [
        {
          "name": "选号",
          "oddPlayItems": []
        }
      ]
    },
    {
      "playName": "zm_a",
      "data": [
        {
          "name": "选号",
          "oddPlayItems": []
        },
        {
          "name": "总和",
          "oddPlayItems": []
        }
      ]
    },
    {
      "playName": "zm_b",
      "data": [
        {
          "name": "选号",
          "oddPlayItems": []
        },
        {
          "name": "总和",
          "oddPlayItems": []
        }
      ]
    },
    {
      "playName": "z1t",
      "data": [
        {
          "name": "选号",
          "oddPlayItems": []
        }
      ]
    },
    {
      "playName": "z2t",
      "data": [
        {
          "name": "选号",
          "oddPlayItems": []
        }
      ]
    },
    {
      "playName": "z3t",
      "data": [
        {
          "name": "选号",
          "oddPlayItems": []
        }
      ]
    },
    {
      "playName": "z4t",
      "data": [
        {
          "name": "选号",
          "oddPlayItems": []
        }
      ]
    },
    {
      "playName": "z5t",
      "data": [
        {
          "name": "选号",
          "oddPlayItems": []
        }
      ]
    },
    {
      "playName": "z6t",
      "data": [
        {
          "name": "选号",
          "oddPlayItems": []
        }
      ]
    },
    {
      "playName": "zm16",
      "data": [
        {
          "name": "正码一",
          "oddPlayItems": []
        },
        {
          "name": "正码二",
          "oddPlayItems": []
        },
        {
          "name": "正码三",
          "oddPlayItems": []
        },
        {
          "name": "正码四",
          "oddPlayItems": []
        },
        {
          "name": "正码五",
          "oddPlayItems": []
        },
        {
          "name": "正码六",
          "oddPlayItems": []
        }
      ]
    },
    {
      "playName": "eqz",
      "data": [
        {
          "name": "选号",
          "oddPlayItems": []
        }
      ]
    },
    {
      "playName": "sqz",
      "data": [
        {
          "name": "选号",
          "oddPlayItems": []
        }
      ]
    },
    {
      "playName": "szy",
      "data": [
        {
          "name": "选号",
          "oddPlayItems": []
        }
      ]
    },
    {
      "playName": "szes",
      "data": [
        {
          "name": "选号",
          "oddPlayItems": []
        }
      ]
    },
    {
      "playName": "ezt",
      "data": [
        {
          "name": "选号",
          "oddPlayItems": []
        }
      ]
    },
    {
      "playName": "szezzs",
      "data": [
        {
          "name": "选号",
          "oddPlayItems": []
        }
      ]
    },
    {
      "playName": "szezze",
      "data": [
        {
          "name": "选号",
          "oddPlayItems": []
        }
      ]
    },
    {
      "playName": "eztzzt",
      "data": [
        {
          "name": "选号",
          "oddPlayItems": []
        }
      ]
    },
    {
      "playName": "eztzze",
      "data": [
        {
          "name": "选号",
          "oddPlayItems": []
        }
      ]
    },
    {
      "playName": "tc",
      "data": [
        {
          "name": "选号",
          "oddPlayItems": []
        }
      ]
    },
    {
      "playName": "siqz",
      "data": [
        {
          "name": "选号",
          "oddPlayItems": []
        }
      ]
    },
    {
      "playName": "bb",
      "data": [
        {
          "name": "半波",
          "oddPlayItems": []
        }
      ]
    },
    {
      "playName": "ztxztw",
      "data": [
        {
          "name": "正特肖",
          "oddPlayItems": []
        },
        {
          "name": "正特尾",
          "oddPlayItems": []
        }
      ]
    },
    {
      "playName": "txsm",
      "data": [
        {
          "name": "特码生肖",
          "oddPlayItems": []
        }
      ]
    },
    {
      "playName": "hx_ex",
      "data": [
        {
          "name": "二肖",
          "oddPlayItems": []
        }
      ]
    },
    {
      "playName": "hx_sanx",
      "data": [
        {
          "name": "三肖",
          "oddPlayItems": []
        }
      ]
    },
    {
      "playName": "hx_six",
      "data": [
        {
          "name": "四肖",
          "oddPlayItems": []
        }
      ]
    },
    {
      "playName": "hx_wux",
      "data": [
        {
          "name": "五肖",
          "oddPlayItems": []
        }
      ]
    },
    {
      "playName": "hx_liux",
      "data": [
        {
          "name": "六肖",
          "oddPlayItems": []
        }
      ]
    },
    {
      "playName": "hx_qix",
      "data": [
        {
          "name": "七肖",
          "oddPlayItems": []
        }
      ]
    },
    {
      "playName": "hx_bax",
      "data": [
        {
          "name": "八肖",
          "oddPlayItems": []
        }
      ]
    },
    {
      "playName": "hx_jiux",
      "data": [
        {
          "name": "九肖",
          "oddPlayItems": []
        }
      ]
    },
    {
      "playName": "hx_shix",
      "data": [
        {
          "name": "十肖",
          "oddPlayItems": []
        }
      ]
    },
    {
      "playName": "hx_syx",
      "data": [
        {
          "name": "十一肖",
          "oddPlayItems": []
        }
      ]
    },
    {
      "playName": "w_bz",
      "data": [
        {
          "name": "选号",
          "oddPlayItems": []
        }
      ]
    },
    {
      "playName": "liu_bz",
      "data": [
        {
          "name": "选号",
          "oddPlayItems": []
        }
      ]
    },
    {
      "playName": "qi_bz",
      "data": [
        {
          "name": "选号",
          "oddPlayItems": []
        }
      ]
    },
    {
      "playName": "ba_bz",
      "data": [
        {
          "name": "选号",
          "oddPlayItems": []
        }
      ]
    },
    {
      "playName": "jiu_bz",
      "data": [
        {
          "name": "选号",
          "oddPlayItems": []
        }
      ]
    },
    {
      "playName": "shi_bz",
      "data": [
        {
          "name": "选号",
          "oddPlayItems": []
        }
      ]
    },
    {
      "playName": "shiy_bz",
      "data": [
        {
          "name": "选号",
          "oddPlayItems": []
        }
      ]
    },
    {
      "playName": "shie_bz",
      "data": [
        {
          "name": "选号",
          "oddPlayItems": []
        }
      ]
    },
    {
      "playName": "erw_lz",
      "data": [
        {
          "name": "尾数连",
          "oddPlayItems": []
        }
      ]
    },
    {
      "playName": "sanw_lz",
      "data": [
        {
          "name": "尾数连",
          "oddPlayItems": []
        }
      ]
    },
    {
      "playName": "siw_lz",
      "data": [
        {
          "name": "尾数连",
          "oddPlayItems": []
        }
      ]
    },
    {
      "playName": "erw_lbz",
      "data": [
        {
          "name": "尾数连",
          "oddPlayItems": []
        }
      ]
    },
    {
      "playName": "sanw_lbz",
      "data": [
        {
          "name": "尾数连",
          "oddPlayItems": []
        }
      ]
    },
    {
      "playName": "siw_lbz",
      "data": [
        {
          "name": "尾数连",
          "oddPlayItems": []
        }
      ]
    },
    {
      "playName": "erx_lz",
      "data": [
        {
          "name": "连肖",
          "oddPlayItems": []
        }
      ]
    },
    {
      "playName": "sanx_lz",
      "data": [
        {
          "name": "连肖",
          "oddPlayItems": []
        }
      ]
    },
    {
      "playName": "six_lz",
      "data": [
        {
          "name": "连肖",
          "oddPlayItems": []
        }
      ]
    },
    {
      "playName": "wux_lz",
      "data": [
        {
          "name": "连肖",
          "oddPlayItems": []
        }
      ]
    },
    {
      "playName": "erx_lbz",
      "data": [
        {
          "name": "连肖",
          "oddPlayItems": []
        }
      ]
    },
    {
      "playName": "sanx_lbz",
      "data": [
        {
          "name": "连肖",
          "oddPlayItems": []
        }
      ]
    },
    {
      "playName": "six_lbz",
      "data": [
        {
          "name": "连肖",
          "oddPlayItems": []
        }
      ]
    }
  ]
}