{
  "options": [{
    "value": "建设银行",
    "label": "建设银行"
  }, {
    "value": "工商银行",
    "label": "工商银行"
  }, {
    "value": "农业银行",
    "label": "农业银行"
  }, {
    "value": "中国邮政银行",
    "label": "中国邮政银行"
  }, {
    "value": "中国银行",
    "label": "中国银行"
  }, {
    "value": "中国招商银行",
    "label": "中国招商银行"
  }, {
    "value": "中国交通银行",
    "label": "中国交通银行"
  }, {
    "value": "中国民生银行",
    "label": "中国民生银行"
  }, {
    "value": "中信银行",
    "label": "中信银行"
  }, {
    "value": "中国兴业银行",
    "label": "中国兴业银行"
  }, {
    "value": "浦发银行",
    "label": "浦发银行"
  }, {
    "value": "平安银行",
    "label": "平安银行"
  }, {
    "value": "华夏银行",
    "label": "华夏银行"
  }, {
    "value": "广州银行",
    "label": "广州银行"
  }, {
    "value": "BEA东亚银行",
    "label": "BEA东亚银行"
  }, {
    "value": "广州农商银行",
    "label": "广州农商银行"
  }, {
    "value": "顺德农商银行",
    "label": "顺德农商银行"
  }, {
    "value": "北京银行",
    "label": "北京银行"
  }, {
    "value": "杭州银行",
    "label": "杭州银行"
  }, {
    "value": "温州银行",
    "label": "温州银行"
  }, {
    "value": "上海农商银行",
    "label": "上海农商银行"
  }, {
    "value": "中国光大银行",
    "label": "中国光大银行"
  }, {
    "value": "渤海银行",
    "label": "渤海银行"
  }, {
    "value": "浙商银行",
    "label": "浙商银行"
  }, {
    "value": "晋商银行",
    "label": "晋商银行"
  }, {
    "value": "汉口银行",
    "label": "汉口银行"
  }, {
    "value": "上海银行",
    "label": "上海银行"
  }, {
    "value": "广发银行",
    "label": "广发银行"
  }, {
    "value": "深圳发展银行",
    "label": "深圳发展银行"
  }, {
    "value": "东莞银行",
    "label": "东莞银行"
  }, {
    "value": "宁波银行",
    "label": "宁波银行"
  }, {
    "value": "南京银行",
    "label": "南京银行"
  }, {
    "value": "北京农商银行",
    "label": "北京农商银行"
  }, {
    "value": "广西农村信用社",
    "label": "广西农村信用社"
  }, {
    "value": "吉林银行",
    "label": "吉林银行"
  }, {
    "value": "江苏银行",
    "label": "江苏银行"
  }, {
    "value": "成都银行",
    "label": "成都银行"
  }, {
    "value": "尧都区农村信用联社",
    "label": "尧都区农村信用联社"
  }, {
    "value": "浙江稠州商业银行",
    "label": "浙江稠州商业银行"
  }, {
    "value": "珠海市农村信用合作联社",
    "label": "珠海市农村信用合作联社"
  }]
}