{
  "classify": "PK10",
  "data": [
    {
      "playName": "shuangmianpan",
      "data": [
        {
          "name": "冠亚和",
          "oddPlayItems": []
        },
        {
          "name": "冠军",
          "oddPlayItems": []
        },
        {
          "name": "亚军",
          "oddPlayItems": []
        },
        {
          "name": "季军",
          "oddPlayItems": []
        },
        {
          "name": "第四名",
          "oddPlayItems": []
        },
        {
          "name": "第五名",
          "oddPlayItems": []
        },
        {
          "name": "第六名",
          "oddPlayItems": []
        },
        {
          "name": "第七名",
          "oddPlayItems": []
        },
        {
          "name": "第八名",
          "oddPlayItems": []
        },
        {
          "name": "第九名",
          "oddPlayItems": []
        },
        {
          "name": "第十名",
          "oddPlayItems": []
        }
      ]
    },
    {
      "playName": "danhao1-10",
      "data": [
        {
          "name": "冠军",
          "oddPlayItems": []
        },
        {
          "name": "亚军",
          "oddPlayItems": []
        },
        {
          "name": "季军",
          "oddPlayItems": []
        },
        {
          "name": "第四名",
          "oddPlayItems": []
        },
        {
          "name": "第五名",
          "oddPlayItems": []
        },
        {
          "name": "第六名",
          "oddPlayItems": []
        },
        {
          "name": "第七名",
          "oddPlayItems": []
        },
        {
          "name": "第八名",
          "oddPlayItems": []
        },
        {
          "name": "第九名",
          "oddPlayItems": []
        },
        {
          "name": "第十名",
          "oddPlayItems": []
        }
      ]
    },
    {
      "playName": "guan-yajun",
      "data": [
        {
          "name": "冠亚和",
          "oddPlayItems": []
        }
      ]
    }
  ]
}