{
  "classify": "PC蛋蛋",
  "data": [
    {
      "playName": "xingyun28",
      "data": [
        {
          "name": "混合",
          "oddPlayItems": []
        },
        {
          "name": "波色",
          "oddPlayItems": []
        },
        {
          "name": "豹子",
          "oddPlayItems": []
        },
        {
          "name": "特码",
          "oddPlayItems": []
        }
      ]
    }
  ]
}