{
  "classify": "快三",
  "data": [
    {
      "playName": "短牌",
      "data": [
        {
          "name": "短牌",
          "oddPlayItems": []
        }
      ]
    },
    {
      "playName": "大小骰宝",
      "data": [
        {
          "name": "大小骰宝",
          "oddPlayItems": []
        }
      ]
    },
    {
      "playName": "长牌",
      "data": [
        {
          "name": "长牌",
          "oddPlayItems": []
        }
      ]
    },
    {
      "playName": "围骰",
      "data": [
        {
          "name": "围骰",
          "oddPlayItems": []
        }
      ]
    },
    {
      "playName": "全骰",
      "data": [
        {
          "name": "全骰",
          "oddPlayItems": []
        }
      ]
    },
    {
      "playName": "点数",
      "data": [
        {
          "name": "点数",
          "oddPlayItems": []
        }
      ]
    }
  ]
}